{
  "servers": [
    {
      "id": "dumpling-ai-mcp-server",
      "name": "Dumpling AI MCP Server",
      "author": "DumplingAI",
      "authorUrl": "https://github.com/DumplingAI",
      "description": "Integrates with Dumpling AI to provide data scraping, content processing, knowledge management, and code execution capabilities through tools for web interactions, document handling, and AI services.",
      "isOfficial": true,
      "categories": [
        "web-scraping",
        "code-execution",
        "knowledge-memory",
        "remote-capable"
      ],
      "scores": {
        "security": "A",
        "license": "A",
        "quality": "A"
      },
      "stats": {
        "tools": 27,
        "weeklyDownloads": 11,
        "githubStars": 27,
        "lastUpdated": "3 months ago"
      },
      "license": "MIT License",
      "url": "/freedevtools/mcp/servers/@DumplingAI/mcp-server-dumplingai",
      "githubUrl": "https://github.com/DumplingAI/mcp-server-dumplingai"
    },
    {
      "id": "openzeppelin-contracts-mcp-server",
      "name": "OpenZeppelin Contracts MCP Server",
      "author": "OpenZeppelin",
      "authorUrl": "https://github.com/OpenZeppelin",
      "description": "A Model Context Protocol (MCP) server that allows AI agents to generate smart contracts using OpenZeppelin Contracts libraries.",
      "isOfficial": true,
      "categories": ["security", "blockchain", "code-analysis"],
      "scores": {
        "security": "A",
        "license": "A",
        "quality": "A"
      },
      "stats": {
        "tools": 22,
        "weeklyDownloads": 46,
        "githubStars": 277,
        "lastUpdated": "1 month ago"
      },
      "license": "AGPL 3.0",
      "url": "/freedevtools/mcp/servers/@OpenZeppelin/openzeppelin-contracts-mcp-server",
      "githubUrl": "https://github.com/OpenZeppelin/openzeppelin-contracts-mcp-server"
    }
  ],
  "pagination": {
    "page": 1,
    "perPage": 100,
    "total": 36000,
    "totalPages": 360
  },
  "filters": {
    "categories": {
      "web-scraping": 4070,
      "code-execution": 952,
      "knowledge-memory": 352,
      "remote-capable": 2548,
      "security": 309,
      "blockchain": 301,
      "browser-automation": 391,
      "cloud-platforms": 559,
      "communication": 420,
      "art-culture": 150,
      "rag-systems": 1110,
      "shell-access": 200,
      "customer-data-platforms": 180
    },
    "licenses": {
      "MIT License": 12000,
      "Apache 2.0": 8000,
      "GPL 3.0": 5000,
      "AGPL 3.0": 3000,
      "Other": 8000
    },
    "scores": {
      "security": { "A": 15000, "B": 12000, "C": 6000, "D": 2000, "F": 1000 },
      "license": { "A": 18000, "B": 10000, "C": 5000, "D": 2000, "F": 1000 },
      "quality": { "A": 12000, "B": 15000, "C": 6000, "D": 2000, "F": 1000 }
    }
  }
}
