{
  "tools": [
    {
      "id": "press_a",
      "name": "press_a",
      "serverId": "mcp-gameboy-server",
      "serverName": "MCP GameBoy Server",
      "description": "Simulate pressing the A button on a GameBoy emulator with customizable duration frames, enabling precise control for testing or gameplay scenarios.",
      "license": "MIT License",
      "url": "/freedevtools/mcp/servers/@mario-andreschak/mcp-gameboy/tools/press_a",
      "category": "gaming"
    },
    {
      "id": "get_a_joke",
      "name": "get_a_joke",
      "serverId": "mcpunk",
      "serverName": "MCPunk",
      "description": "Generate a humorous joke based on a specified animal for entertainment or testing purposes, leveraging the MCPunk server's functionality.",
      "license": "MIT License",
      "url": "/freedevtools/mcp/servers/@mcpunk/mcpunk/tools/get_a_joke",
      "category": "entertainment"
    },
    {
      "id": "delete_a_meeting",
      "name": "delete_a_meeting",
      "serverId": "zoom-mcp-server",
      "serverName": "Zoom MCP Server",
      "description": "Deletes a specified Zoom meeting by its unique ID using the Zoom MCP Server. Input the meeting ID to remove it from the server.",
      "license": "MIT License",
      "url": "/freedevtools/mcp/servers/@zoom/zoom-mcp-server/tools/delete_a_meeting",
      "category": "communication"
    }
  ],
  "pagination": {
    "page": 1,
    "perPage": 100,
    "total": 36000,
    "totalPages": 360
  },
  "filters": {
    "categories": {
      "web-scraping": 8000,
      "code-execution": 6000,
      "communication": 5000,
      "gaming": 3000,
      "entertainment": 2000,
      "security": 4000,
      "blockchain": 3000,
      "browser-automation": 2000,
      "cloud-platforms": 3000,
      "other": 2000
    },
    "servers": {
      "mcp-gameboy-server": 50,
      "mcpunk": 25,
      "zoom-mcp-server": 30,
      "dumpling-ai-mcp-server": 27
    }
  }
}
